00-05-0-Name,"Корабль-Спутник 2 - Биоспутник"
00-05-0-Description,"Эта миссия состоит из запуска и выведения на околоземную орбиту прототипа космического корабля Восток, оборудованного для перевозки биологической полезной нагрузки, которая состоит из двух собак, сорока мышей, двух крыс и различных растений. Две камеры будут транслировать телевизионное изображение собак, оснащённых биометрическими датчиками, передающими их жизненные показатели на наземные станции.

Эта миссия длится один день, после чего космический корабль совершит приземление на советской территории. Животные возвращаются живыми для дальнейшего обследования, которое поможет планировать миссии с человеческим экипажем."
