﻿30-00-0-Name,"Беспилотный суборбитальный испытательный полёт [Тип A]"
30-00-0-Description,"Эта миссия заключается в выполнении короткого, беспилотного суборбитального испытательного полёта с целью подтвердить правильность конструкции командно/служебного отсека (CSM) космического корабля Apollo и выполнить испытание двигателя в космосе. Капсула возвращается на Землю для подробного анализа."
30-00-1-Name,"Суборбитальный полёт [Тип C]"
30-00-1-Description,"Эта миссия заключается в выполнении короткого, пилотируемого суборбитального испытательного полёта, во время которого экипаж проверит работоспособность различных систем космического корабля."
30-00-2-Name,"Беспилотный орбитальный испытательный полёт [Тип A]"
30-00-2-Description,"Эта миссия заключается в выполнении беспилотного испытательного полёта командно/служебного отсека (CSM) корабля Apollo на Низкой Околоземной Орбите (НОО). Компьютер выполнит ряд заранее запланированных манёвров, в то время как операторы полёта на Земле будут контролировать широкий спектр датчиков. Капсула возвращается на землю для подробного анализа."
30-00-3-Name,"Орбитальный полёт [Тип C]"
30-00-3-Description,"Эта миссия включает в себя пилотируемый орбитальный полёт на Низкой Околоземной Орбите (НОО). Космический корабль выполняет несколько витков, в течение которых экипаж проводит обширные испытания бортовых систем. После входа в атмосферу, капсула приводняется в Тихом океане, а экипаж извлекают наземные службы."
30-00-4-Name,"Беспилотное испытание лунного спускаемого аппарата (LEM) на орбите Земли [Тип B]"
30-00-4-Description,"Эта миссия заключается в выведении беспилотного лунного спускаемого аппарата (LEM) на Низкую Околоземную Орбиту (НОО). Компьютер выполняет серию запланированных манёвров, в том числе манёвр аварийного прекращения миссии. Отброшенный в последствии LEM, остаётся на орбите и через некоторое время сгорит в атмосфере Земли."
30-00-5-Name,"Испытание лунного спускаемого аппарата (LEM) на орбите Земли и ВКД [Тип D]"
30-00-5-Description,"Эта миссия заключается в выведении пилотируемого командно/служебного отсека (CSM) и лунного спускаемого аппарата (LEM) на Низкую Околоземную Орбиту (НОО). После успешной перестановки и манёвра стыковки, два члена экипажа переходят в LEM и выполняют испытательный полёт, включая имитацию спуска и подъёма."
30-00-6-Name,"Испытание лунного спускаемого аппарата (LEM) и теплового щита на Высокой Околоземной Орбите [Тип E]"
30-00-6-Description,"Эта миссия заключается в выведении пилотируемого командно/служебного отсека (CSM) Apollo и лунного спускаемого аппарата (LEM) на Высокую Околоземную Орбиту. После успешного выхода на орбиту двигатель поднимает перигей свыше 100000 километров. Во время отдаления от Земли экипаж выполняет перестановку и манёвр стыковки. Два члена экипажа переходят в LEM и производят испытательный полёт, включая имитацию спуска и подъёма. После возвращения в CSM Apollo запускается двигатель для схода с орбиты, и корабль входит в атмосферу Земли со скоростью, близкой к скорости возвращения с Луны."
30-00-7-Name,"Орбитальный полёт (Длительный полёт Уровень I) [Тип C]"
30-00-7-Description,"Целью этой миссии является увеличение длительности орбитального полёта в пределах от 12 до 36 часов. Это дополнительное время на орбите позволит экипажу выполнять простые научные эксперименты в условиях микрогравитации."
30-00-8-Name,"Орбитальный полёт (Длительный полёт Уровень II) [Тип C]"
30-00-8-Description,"Целью этой миссии является увеличение длительности орбитального полёта в пределах от 36 часов до 7 суток. Экипаж проводит широкий спектр научных экспериментов, в то время как медицинские бригады на Земле исследуют биометрические данные, что будет чрезвычайно полезно для повышения безопасности окололунных полётов."
30-00-9-Name,"Орбитальный полёт (Длительный полёт Уровень III) [Тип C]"
30-00-9-Description,"Целью этой миссии является увеличение длительности орбитального полёта в пределах от 7 до 14 суток. Экипаж проводит различные научные и психологические эксперименты, в то время как медицинские бригады на Земле исследуют биометрические данные и поведение экипажа. Эта информация будет чрезвычайно полезна для того, чтобы повысить безопасность лунных орбитальных полётов."
30-00-10-Name,"Орбитальный полёт (Длительный полёт Уровень IV) [Тип C]"
30-00-10-Description,"Целью этой миссии является увеличение длительности орбитального полёта в пределах от 14 до 20 суток. Экипаж проводит различные научные, технологические и психологические эксперименты, в то время как медицинские бригады на Земле исследуют биометрические данные и реакции экипажа. Эти сведения проложат путь для расширенных лунных операций."
30-00-11-Name,"Орбитальный полёт и ВКД (Длительный полёт Уровень I) [Тип C]"
30-00-11-Description,"Целью этой миссии является увеличение длительности орбитального полёта в пределах от 12 до 36 часов. Это дополнительное время на орбите позволит экипажу выполнять простые научные эксперименты в условиях микрогравитации. Также один член экипажа выполняет ВКД, чтобы проверить эффективность лунного скафандра."
30-00-12-Name,"Орбитальный полёт и ВКД (Длительный полёт Уровень II) [Тип C]"
30-00-12-Description,"Целью этой миссии является увеличение длительности орбитального полёта в пределах от 36 часов до 7 суток. Экипаж проводит широкий спектр научных экспериментов, в то время как медицинские бригады на Земле исследуют биометрические данные, что будет чрезвычайно полезно для повышения безопасности окололунных полётов. Также один член экипажа выполняет ВКД, чтобы проверить эффективность лунного скафандра."
30-00-13-Name,"Орбитальный полёт и ВКД (Длительный полёт Уровень III) [Тип C]"
30-00-13-Description,"Целью этой миссии является увеличение длительности орбитального полёта в пределах от 7 до 14 суток. Экипаж проводит различные научные и психологические эксперименты, в то время как медицинские бригады на Земле исследуют биометрические данные и поведение экипажа. Эта информация будет чрезвычайно полезна для того, чтобы повысить безопасность лунных орбитальных полётов. Также один член экипажа выполняет ВКД, чтобы проверить эффективность лунного скафандра"
30-00-14-Name,"Орбитальный полёт и ВКД (Длительный полёт Уровень IV) [Тип C]"
30-00-14-Description,"Целью этой миссии является увеличение длительности орбитального полёта в пределах от 14 до 20 суток. Экипаж проводит различные научные, технологические и психологические эксперименты, в то время как медицинские бригады на Земле исследуют биометрические данные и реакции экипажа. Эти сведения проложат путь для расширенных лунных операций. Также один член экипажа выполняет ВКД, чтобы проверить эффективность лунного скафандра"
30-00-15-Name,"Сближение двух пилотируемых кораблей (Трёхместная капсула)"
30-00-15-Description,"Эта миссия состоит из запуска двух пилотируемых командно/служебных отсеков (CSM) Apollo и может длиться менее 12 часов. Второй космический корабль будет запущен через 90 минут после первого, что позволит ему быть выведенным на аналогичную орбиту. После этого, второй космический корабль использует систему маршевого двигателя (Service Propulsion System,SPS) и систему ориентации (Reaction Control System, RCS), чтобы скорректировать свою орбиту, и выполняет сближение до нескольких метров от первого корабля. Оба космических корабля по очереди сойдут с орбиты и совершат посадку."
30-00-16-Name,"Стыковка (Трёхместная капсула)"
30-00-16-Description,"Эта миссия заключается в пилотируемом орбитальном полёте, а также включает в себя сближение и стыковку с мишенью Gemini-Agena Target Vehicle, чей стыковочный узел был изменён, чтобы соответствовать более совершенному механизму Apollo."
